final_project_1_3/final_project_1_3.sim/sim_1/behav/xsim/simulate.log
Time resolution is 1 ps
Time: 15000 | Freq:          0 | Phase Increment:          0 | Phase Accumulator:          0 | wav_out: 7f
Time: 25000 | Freq:     192576 | Phase Increment:          0 | Phase Accumulator:          0 | wav_out: 80
Time: 35000 | Freq:     192576 | Phase Increment:         49 | Phase Accumulator:          0 | wav_out: 80
Time: 45000 | Freq:     192576 | Phase Increment:         49 | Phase Accumulator:         49 | wav_out: 80
Time: 55000 | Freq:     192576 | Phase Increment:         49 | Phase Accumulator:         98 | wav_out: f6
Time: 65000 | Freq:     192576 | Phase Increment:         49 | Phase Accumulator:        147 | wav_out: d5
Time: 75000 | Freq:     192576 | Phase Increment:         49 | Phase Accumulator:        196 | wav_out: 46
Time: 85000 | Freq:     192576 | Phase Increment:         49 | Phase Accumulator:        245 | wav_out: 01
Time: 95000 | Freq:     192576 | Phase Increment:         49 | Phase Accumulator:         38 | wav_out: 5e
Time: 105000 | Freq:     192576 | Phase Increment:         49 | Phase Accumulator:         87 | wav_out: e6
Time: 115000 | Freq:     192576 | Phase Increment:         49 | Phase Accumulator:        136 | wav_out: eb
Time: 125000 | Freq:     192576 | Phase Increment:         49 | Phase Accumulator:        185 | wav_out: 67
Time: 135000 | Freq:     192576 | Phase Increment:         49 | Phase Accumulator:        234 | wav_out: 02
Time: 145000 | Freq:     192576 | Phase Increment:         49 | Phase Accumulator:         27 | wav_out: 3e
Time: 155000 | Freq:     192576 | Phase Increment:         49 | Phase Accumulator:         76 | wav_out: ce
Time: 165000 | Freq:     192576 | Phase Increment:         49 | Phase Accumulator:        125 | wav_out: f9
Time: 175000 | Freq:     192576 | Phase Increment:         49 | Phase Accumulator:        174 | wav_out: 89
Time: 185000 | Freq:     192576 | Phase Increment:         49 | Phase Accumulator:        223 | wav_out: 0d
Time: 195000 | Freq:     192576 | Phase Increment:         49 | Phase Accumulator:         16 | wav_out: 24
Time: 205000 | Freq:     192576 | Phase Increment:         49 | Phase Accumulator:         65 | wav_out: b0
Time: 215000 | Freq:     192576 | Phase Increment:         49 | Phase Accumulator:        114 | wav_out: fe
Time: 225000 | Freq:     192576 | Phase Increment:         49 | Phase Accumulator:        163 | wav_out: aa
Time: 235000 | Freq:     192576 | Phase Increment:         49 | Phase Accumulator:        212 | wav_out: 1f
Time: 245000 | Freq:     192576 | Phase Increment:         49 | Phase Accumulator:          5 | wav_out: 0f
Time: 255000 | Freq:     192576 | Phase Increment:         49 | Phase Accumulator:         54 | wav_out: 8f
Time: 265000 | Freq:     192576 | Phase Increment:         49 | Phase Accumulator:        103 | wav_out: fb
Time: 275000 | Freq:     192576 | Phase Increment:         49 | Phase Accumulator:        152 | wav_out: c9
Time: 285000 | Freq:     192576 | Phase Increment:         49 | Phase Accumulator:        201 | wav_out: 39
Time: 295000 | Freq:     192576 | Phase Increment:         49 | Phase Accumulator:        250 | wav_out: 04
Time: 305000 | Freq:     192576 | Phase Increment:         49 | Phase Accumulator:         43 | wav_out: 6d
Time: 315000 | Freq:     192576 | Phase Increment:         49 | Phase Accumulator:         92 | wav_out: ee
Time: 325000 | Freq:     192576 | Phase Increment:         49 | Phase Accumulator:        141 | wav_out: e2
Time: 335000 | Freq:     192576 | Phase Increment:         49 | Phase Accumulator:        190 | wav_out: 58
Time: 345000 | Freq:     192576 | Phase Increment:         49 | Phase Accumulator:        239 | wav_out: 01
Time: 355000 | Freq:     192576 | Phase Increment:         49 | Phase Accumulator:         32 | wav_out: 4c
Time: 365000 | Freq:     192576 | Phase Increment:         49 | Phase Accumulator:         81 | wav_out: d9
Time: 375000 | Freq:     192576 | Phase Increment:         49 | Phase Accumulator:        130 | wav_out: f4
Time: 385000 | Freq:     192576 | Phase Increment:         49 | Phase Accumulator:        179 | wav_out: 79
Time: 395000 | Freq:     192576 | Phase Increment:         49 | Phase Accumulator:        228 | wav_out: 07
Time: 405000 | Freq:     192576 | Phase Increment:         49 | Phase Accumulator:         21 | wav_out: 2f
Time: 415000 | Freq:     192576 | Phase Increment:         49 | Phase Accumulator:         70 | wav_out: be
Time: 425000 | Freq:     192576 | Phase Increment:         49 | Phase Accumulator:        119 | wav_out: fd
Time: 435000 | Freq:     192576 | Phase Increment:         49 | Phase Accumulator:        168 | wav_out: 9b
Time: 445000 | Freq:     192576 | Phase Increment:         49 | Phase Accumulator:        217 | wav_out: 16
Time: 455000 | Freq:     192576 | Phase Increment:         49 | Phase Accumulator:         10 | wav_out: 18
Time: 465000 | Freq:     192576 | Phase Increment:         49 | Phase Accumulator:         59 | wav_out: 9e
Time: 475000 | Freq:     192576 | Phase Increment:         49 | Phase Accumulator:        108 | wav_out: fe
Time: 485000 | Freq:     192576 | Phase Increment:         49 | Phase Accumulator:        157 | wav_out: bb
Time: 495000 | Freq:     192576 | Phase Increment:         49 | Phase Accumulator:        206 | wav_out: 2d
Time: 505000 | Freq:     192576 | Phase Increment:         49 | Phase Accumulator:        255 | wav_out: 08
Time: 515000 | Freq:     192576 | Phase Increment:         49 | Phase Accumulator:         48 | wav_out: 7c
Time: 525000 | Freq:     192576 | Phase Increment:         49 | Phase Accumulator:         97 | wav_out: f5
Time: 535000 | Freq:     192576 | Phase Increment:         49 | Phase Accumulator:        146 | wav_out: d7
Time: 545000 | Freq:     192576 | Phase Increment:         49 | Phase Accumulator:        195 | wav_out: 49
Time: 555000 | Freq:     192576 | Phase Increment:         49 | Phase Accumulator:        244 | wav_out: 01
Time: 565000 | Freq:     192576 | Phase Increment:         49 | Phase Accumulator:         37 | wav_out: 5b
Time: 575000 | Freq:     192576 | Phase Increment:         49 | Phase Accumulator:         86 | wav_out: e4
Time: 585000 | Freq:     192576 | Phase Increment:         49 | Phase Accumulator:        135 | wav_out: ec
Time: 595000 | Freq:     192576 | Phase Increment:         49 | Phase Accumulator:        184 | wav_out: 6a
Time: 605000 | Freq:     192576 | Phase Increment:         49 | Phase Accumulator:        233 | wav_out: 03
Time: 615000 | Freq:     192576 | Phase Increment:         49 | Phase Accumulator:         26 | wav_out: 3c
Time: 625000 | Freq:     192576 | Phase Increment:         49 | Phase Accumulator:         75 | wav_out: cb
Time: 635000 | Freq:     192576 | Phase Increment:         49 | Phase Accumulator:        124 | wav_out: fa
Time: 645000 | Freq:     192576 | Phase Increment:         49 | Phase Accumulator:        173 | wav_out: 8c
Time: 655000 | Freq:     192576 | Phase Increment:         49 | Phase Accumulator:        222 | wav_out: 0e
Time: 665000 | Freq:     192576 | Phase Increment:         49 | Phase Accumulator:         15 | wav_out: 21
Time: 675000 | Freq:     192576 | Phase Increment:         49 | Phase Accumulator:         64 | wav_out: ad
Time: 685000 | Freq:     192576 | Phase Increment:         49 | Phase Accumulator:        113 | wav_out: fe
Time: 695000 | Freq:     192576 | Phase Increment:         49 | Phase Accumulator:        162 | wav_out: ad
Time: 705000 | Freq:     192576 | Phase Increment:         49 | Phase Accumulator:        211 | wav_out: 21
Time: 715000 | Freq:     192576 | Phase Increment:         49 | Phase Accumulator:          4 | wav_out: 0e
Time: 725000 | Freq:     192576 | Phase Increment:         49 | Phase Accumulator:         53 | wav_out: 8c
Time: 735000 | Freq:     192576 | Phase Increment:         49 | Phase Accumulator:        102 | wav_out: fa
Time: 745000 | Freq:     192576 | Phase Increment:         49 | Phase Accumulator:        151 | wav_out: cb
Time: 755000 | Freq:     192576 | Phase Increment:         49 | Phase Accumulator:        200 | wav_out: 3c
Time: 765000 | Freq:     192576 | Phase Increment:         49 | Phase Accumul